<?xml version="1.0" encoding="utf-8"?>
<!-- Generator: Adobe Illustrator 19.2.0, SVG Export Plug-In . SVG Version: 6.00 Build 0)  -->
<svg version="1.1" id="Calque_1" xmlns="http://www.w3.org/2000/svg" xmlns:xlink="http://www.w3.org/1999/xlink" x="0px" y="0px"
	 viewBox="0 0 26.8 48.1" style="enable-background:new 0 0 26.8 48.1;" xml:space="preserve">
<style type="text/css">
	.st0{fill:#FFFFFF;}
	.st1{display:none;}
	.st2{display:inline;fill:#ACACAC;}
</style>
<g id="Calque_1_1_">
	<path class="st0" d="M26.8,24c0,0.8-0.3,1.5-0.8,2L4.8,47.2c-1.1,1.1-2.9,1.1-4,0s-1.1-2.9,0-4L20,24L0.8,4.8c-1.1-1.1-1.1-2.9,0-4
		s2.9-1.1,4,0L26,22C26.5,22.6,26.8,23.3,26.8,24z"/>
</g>
<g id="Calque_3" class="st1">
	<path class="st2" d="M-7.1,24c0-0.8,0.3-1.5,0.8-2L14.9,0.8c1.1-1.1,2.9-1.1,4,0s1.1,2.9,0,4L-0.3,24l19.2,19.2
		c1.1,1.1,1.1,2.9,0,4s-2.9,1.1-4,0L-6.3,26C-6.8,25.4-7.1,24.7-7.1,24z"/>
</g>
<g id="Calque_4" class="st1">
	<path class="st2" d="M9.9,8.4c0.8,0,1.5,0.3,2,0.8l21.2,21.2c1.1,1.1,1.1,2.9,0,4s-2.9,1.1-4,0L9.9,15.3L-9.3,34.5
		c-1.1,1.1-2.9,1.1-4,0s-1.1-2.9,0-4L7.8,9.3C8.4,8.8,9.1,8.4,9.9,8.4z"/>
</g>
</svg>
