<?xml version="1.0" encoding="utf-8"?>
<!-- Generator: Adobe Illustrator 19.2.0, SVG Export Plug-In . SVG Version: 6.00 Build 0)  -->
<svg version="1.1" xmlns="http://www.w3.org/2000/svg" xmlns:xlink="http://www.w3.org/1999/xlink" x="0px" y="0px"
	 viewBox="0 0 40 40" style="enable-background:new 0 0 40 40;" xml:space="preserve">
<style type="text/css">
	.st0{fill:#003876;}
	.st1{fill:none;stroke:#FFFFFF;stroke-linecap:round;stroke-miterlimit:10;}
</style>
<g id="Calque_1">
	<circle class="st0" cx="20" cy="20" r="19.4"/>
</g>
<g id="Calque_2">
	<line class="st1" x1="12.6" y1="16.1" x2="27" y2="16.1"/>
	<line class="st1" x1="12.6" y1="19.6" x2="27" y2="19.6"/>
	<line class="st1" x1="12.6" y1="23.4" x2="27" y2="23.4"/>
</g>
</svg>
