<?xml version="1.0" encoding="utf-8"?>
<!-- Generator: Adobe Illustrator 19.2.0, SVG Export Plug-In . SVG Version: 6.00 Build 0)  -->
<svg version="1.1" id="Calque_1" xmlns="http://www.w3.org/2000/svg" xmlns:xlink="http://www.w3.org/1999/xlink" x="0px" y="0px"
	 viewBox="0 0 40 40" style="enable-background:new 0 0 40 40;" xml:space="preserve">
<style type="text/css">
	.st0{fill:#003876;}
	.st1{fill:#FFFFFF;}
</style>
<circle class="st0" cx="20" cy="20" r="19.7"/>
<g>
	<path class="st1" d="M14.3,11.5c0.3-0.3,0.7-0.6,1.1-0.9c0.4-0.3,0.8-0.5,1.3-0.7c0.5-0.2,1-0.4,1.5-0.5c0.5-0.1,1.1-0.2,1.8-0.2
		c0.8,0,1.6,0.1,2.3,0.4c0.7,0.2,1.3,0.6,1.8,1c0.5,0.4,0.9,1,1.2,1.6c0.3,0.6,0.4,1.3,0.4,2.1c0,0.8-0.1,1.5-0.4,2.1
		c-0.2,0.6-0.5,1.1-0.9,1.5s-0.8,0.8-1.2,1.1c-0.4,0.3-0.8,0.6-1.2,0.9c-0.4,0.3-0.7,0.6-1,0.8c-0.3,0.3-0.4,0.6-0.5,0.9l-0.3,2.4
		h-1.9l-0.2-2.6v-0.2c0-0.4,0.1-0.8,0.4-1.2c0.2-0.3,0.5-0.7,0.9-1c0.4-0.3,0.7-0.6,1.2-0.9c0.4-0.3,0.8-0.6,1.2-1
		c0.4-0.4,0.7-0.8,0.9-1.2c0.2-0.5,0.4-1,0.4-1.6c0-0.5-0.1-0.9-0.3-1.2c-0.2-0.4-0.4-0.7-0.7-0.9c-0.3-0.3-0.7-0.5-1.1-0.6
		c-0.4-0.1-0.9-0.2-1.3-0.2c-0.6,0-1.2,0.1-1.6,0.2c-0.5,0.2-0.8,0.3-1.2,0.5c-0.3,0.2-0.6,0.4-0.8,0.5c-0.2,0.2-0.4,0.2-0.5,0.2
		c-0.3,0-0.5-0.1-0.6-0.4L14.3,11.5z M17.4,30.3c0-0.3,0-0.5,0.1-0.8c0.1-0.2,0.2-0.5,0.4-0.6c0.2-0.2,0.4-0.3,0.6-0.4
		c0.2-0.1,0.5-0.2,0.8-0.2s0.5,0.1,0.8,0.2c0.2,0.1,0.5,0.2,0.6,0.4c0.2,0.2,0.3,0.4,0.4,0.6c0.1,0.2,0.1,0.5,0.1,0.8
		c0,0.3,0,0.5-0.1,0.8c-0.1,0.2-0.2,0.4-0.4,0.6c-0.2,0.2-0.4,0.3-0.6,0.4c-0.2,0.1-0.5,0.1-0.8,0.1s-0.5,0-0.8-0.1
		c-0.2-0.1-0.4-0.2-0.6-0.4c-0.2-0.2-0.3-0.4-0.4-0.6C17.4,30.8,17.4,30.6,17.4,30.3z"/>
</g>
</svg>
