<?xml version="1.0" encoding="utf-8"?>
<!-- Generator: Adobe Illustrator 19.2.0, SVG Export Plug-In . SVG Version: 6.00 Build 0)  -->
<svg version="1.1" xmlns="http://www.w3.org/2000/svg" xmlns:xlink="http://www.w3.org/1999/xlink" x="0px" y="0px"
	 viewBox="0 0 116.5 116.5" style="enable-background:new 0 0 116.5 116.5;" xml:space="preserve">
<style type="text/css">
	.st0{fill:#D8D8D8;stroke:#FFFFFF;stroke-miterlimit:10;}
	.st1{fill:#D8D8D8;}
	.st2{fill:none;stroke:#FFFFFF;stroke-width:2.16;stroke-miterlimit:10;}
	.st3{fill:none;stroke:#2E3192;stroke-width:2.16;stroke-miterlimit:10;}
	.st4{fill:#FFFFFF;}
</style>
<g id="Layer_3">
	<polygon class="st0" points="33.1,114.5 2,83.4 83.5,1.8 113.7,33.5 	"/>
	<path class="st1" d="M-180.7,113.7h-107.7c-6.6,0-12-1.2-12-12v-280.3c0-10.8,5.4-12,12-12h107.7c11,0,12,5.4,12,12v280.3
		C-168.5,113.7-174.1,113.7-180.7,113.7z"/>
	<rect x="-227.7" y="-445.5" class="st1" width="115.3" height="44"/>
	<rect x="-300.3" y="-362.2" class="st1" width="42.9" height="115.3"/>
	<rect x="0.6" y="36.2" transform="matrix(0.7071 -0.7071 0.7071 0.7071 -24.054 58.2666)" class="st2" width="115.3" height="44"/>
	<line class="st2" x1="11.9" y1="73.5" x2="43" y2="104.6"/>
	<line class="st2" x1="73.9" y1="11.5" x2="105" y2="42.6"/>
	<g>
		<rect x="-227.7" y="-445.5" class="st2" width="115.3" height="44"/>
		<line class="st2" x1="-213.7" y1="-445.5" x2="-213.7" y2="-401.5"/>
		<line class="st2" x1="-126" y1="-445.5" x2="-126" y2="-401.5"/>
	</g>
	<g>
		
			<rect x="-336" y="-326.5" transform="matrix(4.488569e-11 1 -1 4.488569e-11 -582.8309 -26.1659)" class="st2" width="115.3" height="44"/>
		<line class="st2" x1="-256.3" y1="-348.2" x2="-300.3" y2="-348.2"/>
		<line class="st2" x1="-256.3" y1="-260.5" x2="-300.3" y2="-260.5"/>
	</g>
	
		<rect x="-93.2" y="-311" transform="matrix(4.489482e-11 -1 1 4.489482e-11 328.6667 -283)" class="st3" width="232" height="10.3"/>
	<path class="st1" d="M101.7-163.6H-0.8c-6.6,0-12-5.4-12-12v-257.2c0-6.6,5.4-12,12-12h102.5c6.6,0,12,5.4,12,12v257.2
		C113.7-169,108.3-163.6,101.7-163.6z"/>
</g>
<g id="Layer_2">
	
		<rect x="-81.3" y="-308.2" transform="matrix(4.489748e-11 -1 1 4.489748e-11 337.1675 -277.1659)" class="st2" width="222.7" height="2"/>
	<line class="st2" x1="-12.7" y1="-256.5" x2="17.7" y2="-256.5"/>
	<line class="st2" x1="-12.7" y1="-352.2" x2="17.7" y2="-352.2"/>
	<path class="st2" d="M-12.7-174.8v-257.3c0,0-2.3-12.7,13-12.7s103,0,103,0s10.3-1,10.3,12.3s0,65.3,0,65.3s1,12.2-12.2,12.2H31
		v6.8h70.3c0,0,12.4-2,12.4,11s0,64.3,0,64.3s1.7,12.2-12.2,12.2s-70.5,0-70.5,0v8.5h70.7c0,0,11.8-2.3,11.8,11.8
		c0,14.2,0,61.8,0,61.8s1.7,13.6-13.6,13.6s-101.2,0-101.2,0S-12.7-162.8-12.7-174.8z"/>
	<line class="st2" x1="66.2" y1="-164.9" x2="66.2" y2="-252.2"/>
	<line class="st2" x1="48.2" y1="-164.9" x2="48.2" y2="-252.2"/>
	<line class="st2" x1="66.2" y1="-261.2" x2="66.2" y2="-348.5"/>
	<line class="st2" x1="48.2" y1="-261.2" x2="48.2" y2="-348.5"/>
	<line class="st2" x1="66.2" y1="-355" x2="66.2" y2="-444.9"/>
	<line class="st2" x1="48.2" y1="-355" x2="48.2" y2="-444.9"/>
	<path class="st2" d="M-168.7-183.3v289.9c0,4-3.2,7.2-7.2,7.2h-117.3c-4,0-7.2-3.2-7.2-7.2v-289.9c0-4,3.2-7.2,7.2-7.2h117.3
		C-171.9-190.5-168.7-187.3-168.7-183.3z"/>
	<line class="st2" x1="-300.3" y1="82.5" x2="-168.7" y2="82.5"/>
	<line class="st2" x1="-300.3" y1="-148.8" x2="-168.7" y2="-148.8"/>
	
		<rect x="-236.8" y="53.2" transform="matrix(4.482465e-11 -1 1 4.482465e-11 -325.6659 -143.3405)" class="st2" width="4.7" height="75.8"/>
	
		<rect x="-256" y="-9.6" transform="matrix(4.490636e-11 -1 1 4.490636e-11 -273.1873 -195.819)" class="st2" width="43" height="96.6"/>
	
		<rect x="-256" y="-153.3" transform="matrix(4.488505e-11 -1 1 4.488505e-11 -129.4777 -339.5287)" class="st2" width="43" height="96.6"/>
	<polyline class="st2" points="-221.6,88.8 -221.6,82.5 -217.1,82.5 -217.1,88.8 	"/>
	<polyline class="st2" points="-251.5,88.8 -251.5,82.5 -247,82.5 -247,88.8 	"/>
	
		<rect x="-236.8" y="-195.4" transform="matrix(4.501980e-11 1 -1 4.501980e-11 -392.0072 76.9992)" class="st2" width="4.7" height="75.8"/>
	<polyline class="st2" points="-247.4,-155.2 -247.4,-148.8 -251.9,-148.8 -251.9,-155.2 	"/>
	<polyline class="st2" points="-217.5,-155.2 -217.5,-148.8 -222,-148.8 -222,-155.2 	"/>
	<polyline class="st2" points="17.7,-266.2 28,-266.2 28,-343 17.7,-343 	"/>
	<path class="st2" d="M-168.7,64.5"/>
	<line class="st2" x1="-282.8" y1="45.8" x2="-186.2" y2="45.8"/>
	<line class="st2" x1="-233.7" y1="45.8" x2="-233.7" y2="17.2"/>
	<rect x="-273.5" y="-109.8" style="fill:none;" width="92.4" height="13.3"/>
	<text transform="matrix(1 0 0 1 -273.5221 -99.431)" class="st4" style="font-family:'Lato-Bold'; font-size:14px;">WATER BAR</text>
</g>
</svg>
