<?xml version="1.0" encoding="utf-8"?>
<!-- Generator: Adobe Illustrator 19.2.0, SVG Export Plug-In . SVG Version: 6.00 Build 0)  -->
<svg version="1.1" xmlns="http://www.w3.org/2000/svg" xmlns:xlink="http://www.w3.org/1999/xlink" x="0px" y="0px"
	 viewBox="0 0 190.3 201.1" style="enable-background:new 0 0 190.3 201.1;" xml:space="preserve">
<style type="text/css">
	.st0{fill:#D8D8D8;}
	.st1{fill:none;stroke:#2E3192;stroke-width:2.16;stroke-miterlimit:10;}
	.st2{fill:none;stroke:#FFFFFF;stroke-width:2.16;stroke-miterlimit:10;}
</style>
<g id="Layer_3">
	<rect x="73.9" y="1.2" class="st0" width="115.3" height="44"/>
	<rect x="1.3" y="84.6" class="st0" width="42.9" height="115.3"/>
	
		<rect x="302.2" y="482.9" transform="matrix(0.7071 -0.7071 0.7071 0.7071 -251.6223 402.3682)" class="st1" width="115.3" height="44"/>
	<line class="st1" x1="313.5" y1="520.2" x2="344.6" y2="551.4"/>
	<line class="st1" x1="375.4" y1="458.3" x2="406.6" y2="489.4"/>
	<g>
		<rect x="73.9" y="1.2" class="st2" width="115.3" height="44"/>
		<line class="st2" x1="87.9" y1="1.2" x2="87.9" y2="45.2"/>
		<line class="st2" x1="175.6" y1="1.2" x2="175.6" y2="45.2"/>
	</g>
	<g>
		
			<rect x="-34.4" y="120.3" transform="matrix(4.488569e-11 1 -1 4.488569e-11 165.5024 119.0008)" class="st2" width="115.3" height="44"/>
		<line class="st2" x1="45.3" y1="98.6" x2="1.3" y2="98.6"/>
		<line class="st2" x1="45.3" y1="186.3" x2="1.3" y2="186.3"/>
	</g>
	
		<rect x="208.4" y="135.8" transform="matrix(4.489482e-11 -1 1 4.489482e-11 183.5 465.3333)" class="st1" width="232" height="10.3"/>
</g>
<g id="Layer_2">
	
		<rect x="220.3" y="138.6" transform="matrix(4.489748e-11 -1 1 4.489748e-11 192.0008 471.1675)" class="st1" width="222.7" height="2"/>
	<line class="st1" x1="288.9" y1="190.2" x2="319.2" y2="190.2"/>
	<line class="st1" x1="288.9" y1="94.6" x2="319.2" y2="94.6"/>
	<path class="st1" d="M288.9,271.9V14.6c0,0-2.3-12.7,13-12.7c15.3,0,103,0,103,0s10.3-1,10.3,12.3s0,65.3,0,65.3s1,12.2-12.2,12.2
		h-70.5v6.8h70.3c0,0,12.4-2,12.4,11s0,64.3,0,64.3s1.7,12.2-12.2,12.2c-13.8,0-70.5,0-70.5,0v8.5h70.7c0,0,11.8-2.3,11.8,11.8
		c0,14.2,0,61.8,0,61.8s1.7,13.6-13.6,13.6s-101.2,0-101.2,0S288.9,283.9,288.9,271.9z"/>
	<line class="st1" x1="367.8" y1="281.8" x2="367.8" y2="194.6"/>
	<line class="st1" x1="349.8" y1="281.8" x2="349.8" y2="194.6"/>
	<line class="st1" x1="367.8" y1="185.5" x2="367.8" y2="98.3"/>
	<line class="st1" x1="349.8" y1="185.5" x2="349.8" y2="98.3"/>
	<line class="st1" x1="367.8" y1="91.8" x2="367.8" y2="1.9"/>
	<line class="st1" x1="349.8" y1="91.8" x2="349.8" y2="1.9"/>
	<path class="st1" d="M132.9,263.4v289.9c0,4-3.2,7.2-7.2,7.2H8.4c-4,0-7.2-3.2-7.2-7.2V263.4c0-4,3.2-7.2,7.2-7.2h117.3
		C129.7,256.2,132.9,259.5,132.9,263.4z"/>
	<line class="st1" x1="1.2" y1="529.2" x2="132.9" y2="529.2"/>
	<line class="st1" x1="1.2" y1="297.9" x2="132.9" y2="297.9"/>
	
		<rect x="64.7" y="500" transform="matrix(4.482465e-11 -1 1 4.482465e-11 -470.8325 604.9928)" class="st1" width="4.7" height="75.8"/>
	
		<rect x="45.6" y="437.1" transform="matrix(4.490636e-11 -1 1 4.490636e-11 -418.354 552.5143)" class="st1" width="43" height="96.6"/>
	
		<rect x="45.6" y="293.4" transform="matrix(4.488505e-11 -1 1 4.488505e-11 -274.6444 408.8047)" class="st1" width="43" height="96.6"/>
	<polyline class="st1" points="80,535.6 80,529.2 84.5,529.2 84.5,535.6 	"/>
	<polyline class="st1" points="50.1,535.6 50.1,529.2 54.6,529.2 54.6,535.6 	"/>
	
		<rect x="64.7" y="251.3" transform="matrix(4.501980e-11 1 -1 4.501980e-11 356.3261 222.1659)" class="st1" width="4.7" height="75.8"/>
	<polyline class="st1" points="54.2,291.6 54.2,297.9 49.7,297.9 49.7,291.6 	"/>
	<polyline class="st1" points="84,291.6 84,297.9 79.5,297.9 79.5,291.6 	"/>
	<polyline class="st1" points="319.2,180.5 329.6,180.5 329.6,103.8 319.2,103.8 	"/>
	<path class="st1" d="M132.9,511.2"/>
	<line class="st1" x1="18.8" y1="492.6" x2="115.4" y2="492.6"/>
	<line class="st1" x1="67.9" y1="492.6" x2="67.9" y2="464"/>
</g>
</svg>
